<?xml version="1.0" encoding="utf-8"?>
<!DOCTYPE svg PUBLIC "-//W3C//DTD SVG 1.1//EN" "http://www.w3.org/Graphics/SVG/1.1/DTD/svg11.dtd">
<svg version="1.1" id="Layer_1" xmlns="http://www.w3.org/2000/svg" xmlns:xlink="http://www.w3.org/1999/xlink" x="0px" y="0px"
	 viewBox="0 0 558 450.507" enable-background="new 0 0 558 450.507" xml:space="preserve">
<g>
	<path fill="#A4A4A5" d="M443.943,429.424c-8.512,0-15.611,5.937-21.224,10.709c-3.091,2.629-5.668,5.31-8.503,5.696
		c-4.289-0.392-8.03-3.552-11.842-7.216c-3.719-3.577-7.992-7.54-13.753-8.785c0.002,0.001,0.003,0.001,0.005,0.001l9.961-85.83H415
		v-8h-31v-67h31v-7h-8h-22.997H383h-6.771H350.37l117.757-69.553l5.304-3.118l-8.105-17.827l-4.771,2.326l-0.004-0.011l-0.831,0.418
		l-0.012,0.006L313,248.025V218h-35.271L259.61,10H249V0h-22v10h-12.483l-18.118,208H162v44H92v74H59v8h14.249l9.543,86.626
		c0.001,0,0.002-0.001,0.003-0.001c-5.622,1.975-10.498,6.043-14.574,9.509c-3.092,2.629-5.681,5.31-8.516,5.696
		c-4.289-0.392-8.035-3.552-11.847-7.216c-4.478-4.308-9.758-9.189-17.477-9.189c-8.512,0-15.604,5.937-21.216,10.709
		c-3.338,2.839-6.055,5.773-9.165,5.773v4.665c4.665,0,7.874-3.189,12.22-6.887c5.291-4.497,11.585-9.597,18.382-9.597
		c5.842,0,9.871,3.831,14.09,7.888c4.09,3.933,8.308,7.986,14.308,8.531v0.064c0,0,0.525-0.032,0.678-0.039
		c0.36,0.021,1.322,0.039,1.322,0.039v-0.134c3-0.618,6.642-3.481,10.487-6.753c5.29-4.497,11.495-9.597,18.292-9.597
		c5.841,0,9.783,3.831,14.002,7.888c4.09,3.933,8.219,7.986,14.219,8.531v0.064c0,0,0.525-0.032,0.678-0.039
		c0.36,0.021,1.322,0.039,1.322,0.039v-0.134c3-0.618,6.685-3.481,10.53-6.753c5.291-4.497,11.517-9.597,18.314-9.597
		c5.842,0,9.751,3.831,13.969,7.888c4.091,3.933,8.187,7.986,14.187,8.531v0.064c0,0,0.525-0.032,0.678-0.039
		c0.36,0.021,1.322,0.039,1.322,0.039v-0.134c3-0.618,6.729-3.481,10.574-6.753c5.29-4.497,11.539-9.597,18.335-9.597
		c5.842,0,9.719,3.831,13.937,7.888c4.091,3.933,8.154,7.986,14.154,8.531v0.064c0,0,0.525-0.032,0.678-0.039
		c0.36,0.021,1.322,0.039,1.322,0.039v-0.134c3-0.618,6.773-3.481,10.617-6.753c5.291-4.497,11.561-9.597,18.358-9.597
		c5.842,0,9.684,3.831,13.903,7.888c4.091,3.933,8.122,7.986,14.122,8.531v0.064c0,0,0.524-0.032,0.678-0.039
		c0.36,0.021,1.322,0.039,1.322,0.039v-0.134c3-0.618,6.815-3.481,10.661-6.753c5.29-4.497,11.581-9.597,18.378-9.597
		c5.842,0,10.154,3.831,14.372,7.888c4.091,3.933,7.589,7.986,14.589,8.531v0.064c0,0,0.024-0.032,0.178-0.039
		c0.36,0.021,0.822,0.039,0.822,0.039v-0.134c3-0.618,6.859-3.481,10.705-6.753c5.289-4.497,11.603-9.597,18.399-9.597
		c5.842,0,10.121,3.831,14.339,7.888c4.09,3.933,7.557,7.986,14.557,8.531v0.064c0,0,0.024-0.032,0.178-0.039
		c0.36,0.021,0.822,0.039,0.822,0.039v-0.134c3-0.618,6.903-3.481,10.748-6.753c5.29-4.497,11.625-9.597,18.422-9.597
		c5.842,0,9.811,3.831,14.028,7.888c4.396,4.226,7.802,8.596,15.802,8.596v-4.665c-4,0-8.557-3.38-12.627-7.293
		C456.895,434.306,451.663,429.424,443.943,429.424 M386.981,429.559c-0.096-0.012-0.19-0.024-0.287-0.034
		C386.79,429.535,386.885,429.547,386.981,429.559 M384.907,429.424h-0.005h0.001H384.907z M465.458,186.8l-24.035,14.195
		l-1.297-2.832l24.425-13.343L465.458,186.8z M462.298,179.9l0.955,2.085l-24.425,13.343l-1.35-2.945L462.298,179.9z
		 M436.04,204.176l-27.707,16.365l-1.834-4.006l28.155-15.382L436.04,204.176z M431.917,195.179l1.438,3.139L405.2,213.699
		l-1.892-4.131L431.917,195.179z M402.949,223.72l-28.267,16.696l-2.381-5.199l28.725-15.693L402.949,223.72z M397.748,212.365
		l1.98,4.323l-28.726,15.693l-2.443-5.336L397.748,212.365z M369.297,243.597l-28.267,16.695l-2.928-6.394l28.726-15.694
		L369.297,243.597z M362.999,229.843l2.531,5.526l-28.727,15.692l-2.994-6.54L362.999,229.843z M334.971,262h-11.699l9.358-5.112
		L334.971,262z M328.249,247.319l3.084,6.733L316.784,262H313v-7.012L328.249,247.319z M241,16h4.098l3.945,47H241V16z M241,67
		h8.438l3.682,44H241V67z M241,115h12.515l3.812,45H241V115z M241,165h16.722l3.683,44H241V165z M229.029,16H235v47h-9.916
		L229.029,16z M224.69,67H235v44h-13.993L224.69,67z M220.613,115H235v45h-18.2L220.613,115z M216.405,165H235v44h-22.278
		L216.405,165z M84.351,430.139c0.025-0.007,0.049-0.014,0.074-0.021C84.4,430.125,84.376,430.132,84.351,430.139 M85.89,429.783
		c0.071-0.014,0.141-0.031,0.211-0.044C86.03,429.751,85.961,429.769,85.89,429.783 M87.471,429.545
		c0.105-0.012,0.209-0.03,0.315-0.04C87.68,429.515,87.576,429.534,87.471,429.545 M127.308,440.133
		c-3.091,2.629-5.681,5.31-8.516,5.696c-4.289-0.392-8.035-3.552-11.847-7.216c2.114,2.032,4.211,3.889,6.388,5.227L124.921,344
		h7.415l9.543,86.626c0.001,0,0.002-0.001,0.003-0.001C136.26,432.599,131.384,436.667,127.308,440.133 M143.44,430.139
		c0.024-0.007,0.048-0.014,0.071-0.021C143.488,430.125,143.464,430.132,143.44,430.139 M144.979,429.782
		c0.07-0.013,0.138-0.03,0.209-0.043C145.117,429.751,145.049,429.769,144.979,429.782 M146.559,429.545
		c0.105-0.012,0.209-0.03,0.314-0.04C146.768,429.515,146.664,429.534,146.559,429.545 M296.053,445.83
		c-4.289-0.392-8.035-3.552-11.847-7.216c-4.479-4.308-9.757-9.189-17.478-9.189c-8.511,0-15.634,5.937-21.247,10.709
		c-3.092,2.629-5.68,5.31-8.515,5.696c-4.29-0.392-8.037-3.552-11.848-7.216c-4.478-4.308-9.757-9.189-17.478-9.189
		c-8.51,0-15.634,5.937-21.246,10.709c-3.092,2.629-5.681,5.31-8.516,5.696c-4.289-0.392-8.035-3.552-11.847-7.216
		c2.114,2.032,4.211,3.889,6.388,5.227L184.009,344h103.818l11.093,100.699c0.223-0.137,0.445-0.283,0.669-0.438
		C298.417,445.074,297.257,445.666,296.053,445.83 M299.62,444.241c1.579-1.097,3.182-2.605,4.949-4.107
		C302.801,441.636,301.199,443.142,299.62,444.241 M327.611,429.525c0.093,0.01,0.185,0.021,0.277,0.033
		C327.795,429.547,327.704,429.535,327.611,429.525 M355.14,445.83c-4.29-0.392-8.036-3.552-11.847-7.216
		c-3.719-3.576-7.993-7.539-13.754-8.784L339.5,344h7.415l11.092,100.699c0.22-0.135,0.439-0.279,0.66-0.431
		C357.499,445.077,356.34,445.666,355.14,445.83 M363.343,440.402c-0.265,0.228-0.529,0.456-0.788,0.682
		C362.815,440.857,363.078,440.63,363.343,440.402 M362.428,441.195c-1.289,1.129-2.503,2.194-3.701,3.031
		C359.925,443.391,361.14,442.32,362.428,441.195"/>
	<path fill="#A4A4A5" d="M557.779,132.896c-0.139-0.017-0.295,0.047-0.389,0.158c-15.448,18.032-38.688,14.439-43.346,13.498
		c12.77-5.242,13.048-17.877,13.046-18.008c0.004-0.135-0.111-0.229-0.271-0.228c-0.161,0.011-0.323,0.113-0.389,0.247
		c-0.041,0.08-4.185,8.079-28.329,11.995c-8.72,1.678-15.409,4.947-19.895,9.728c-6.094,6.479-6.917,14.318-6.531,19.759
		c0.011,0.14,0.146,0.234,0.322,0.203c0.178-0.026,0.324-0.154,0.367-0.307c0.604-2.609,2.042-4.701,4.253-6.221
		c3.146-2.169,7.234-2.753,10.014-2.585c3.09,0.193,7.169-2.416,8.776-3.547c-1.568,5.978-9.26,7.715-9.594,7.791
		c-0.167,0.038-0.31,0.163-0.339,0.293c-0.036,0.144,0.05,0.257,0.197,0.284c0.202,0.027,4.892,0.702,9.092-2.707
		c9.441-8.544,16.659-6.454,18.947-5.436c-12.481,2.117-16.976,14.518-17.017,14.647c-0.045,0.123,0.004,0.235,0.122,0.286
		c0.112,0.051,0.274,0.018,0.397-0.067c4.176-3.06,8.133-1.847,9.818-1.071c-1.9,0.365-5.939,1.942-11.972,8.402
		c-7.144,7.22-13.256,5.9-17.127,3.526c-0.124-0.073-0.323-0.04-0.47,0.083c-0.134,0.117-0.169,0.285-0.07,0.385
		c1.435,1.579,2.862,2.939,4.499,4.285c6.829,4.998,13.905,6.453,21.021,4.333c8.508-2.545,15.259-9.84,18.457-15.315
		c3.705-6.343,16.667-10.772,16.797-10.821c0.142-0.046,0.248-0.147,0.286-0.27c0.038-0.117-0.014-0.223-0.118-0.27
		c-6.815-3.014-13.725-0.883-18.319,1.433c-3.136,1.587-5.615,3.435-7.035,4.609c1.606-2.549,5.743-7.91,13.156-10.192
		c16.183-4.044,23.99-11.626,27.681-17.265c4.012-6.118,4.179-11.199,4.182-11.413C558.004,133,557.916,132.908,557.779,132.896"/>
</g>
</svg>
